{
  "project_info": {
    "project_number": "559256363801",
    "firebase_url": "https://mozzaztalk.firebaseio.com",
    "project_id": "mozzaztalk",
    "storage_bucket": "mozzaztalk.appspot.com"
  },
  "client": [
    {
      "client_info": {
        "mobilesdk_app_id": "1:559256363801:android:368ce9fe63f572bd",
        "android_client_info": {
          "package_name": "com.mozzaz.mozzaztalk"
        }
      },
      "oauth_client": [
        {
          "client_id": "559256363801-6lspvvq5ukncpeunbjsqn4egrrln6vjd.apps.googleusercontent.com",
          "client_type": 1,
          "android_info": {
            "package_name": "com.mozzaz.mozzaztalk",
            "certificate_hash": "bcc26ee12292543d71b6afb35478019a1763d412"
          }
        },
        {
          "client_id": "559256363801-68i82j2i4fvlhnn1iv7o214q7q1kdde7.apps.googleusercontent.com",
          "client_type": 1,
          "android_info": {
            "package_name": "com.mozzaz.mozzaztalk",
            "certificate_hash": "967be3ad6e95bd4ecaac5b730fb934c946d5468e"
          }
        },
        {
          "client_id": "559256363801-qu6g1js5dk1itc00frp0uetp4iffqk0u.apps.googleusercontent.com",
          "client_type": 3
        }
      ],
      "api_key": [
        {
          "current_key": "AIzaSyCo_cjI7upjRUMYV0yQTVJeDr4J7gn09WU"
        }
      ],
      "services": {
        "analytics_service": {
          "status": 1
        },
        "appinvite_service": {
          "status": 2,
          "other_platform_oauth_client": [
            {
              "client_id": "559256363801-qu6g1js5dk1itc00frp0uetp4iffqk0u.apps.googleusercontent.com",
              "client_type": 3
            }
          ]
        },
        "ads_service": {
          "status": 2
        }
      }
    }
  ],
  "configuration_version": "1"
}